{
  "variables": {
    "img_mount_path": "./raspbian",
    "playbook": "./playbooks/lcd-raspbian.yml"
  },
  "builders": [
    {
      "type": "arm-image",
      "iso_url": "https://downloads.raspberrypi.org/raspbian_lite_latest",
      "iso_checksum_type": "sha256",
      "iso_checksum": "a50237c2f718bd8d806b96df5b9d2174ce8b789eda1f03434ed2213bbca6c6ff",
      "mount_path": "{{ user `img_mount_path` }}"
    }
  ],
  "provisioners": [
    {
      "type": "shell-local",
      "inline": [
        "sudo -E ANSIBLE_FORCE_COLOR=1 ansible-playbook -vv -i '{{ user `img_mount_path` }}', -c chroot {{ user `playbook` }}"
      ]
    }
  ]
}